<<<<<<< HEAD
<<<<<<< HEAD
m_EditorVersion: 5.2.0f3
=======
m_EditorVersion: 5.2.1f1
>>>>>>> 708528369c43146de9e7d4a7a47f57ee8837b596
=======
m_EditorVersion: 5.2.0f3
>>>>>>> 90380c86c849e4324ec5738e64f2474e148210eb
m_StandardAssetsVersion: 0
